{
	"speaker-checkin":858940508021850113,

	"Science, Data & Analytics":866132441874038824,
	"DevOops":866132226243559435,
	"Education":866132273299980338,
	"Snakeoil Academy (Security & Privacy)":866132366787739690,

	"Curlyboi Theatre":866133780270940175,
	"Platypus Hall":866133831953022987,

	"testroom":865855886836760587,
	"test-speaker-checkin":865855669676671017,
	"bot-status":866131706384744469
}
