{
    "results": [
	{
		 "code": "",
            "speakers": [
                {
                    "code": "",
                    "name": "Speaker Speakerson",
                    "biography": "aaa",
                    "avatar": ""
                },
                {
                    "code": "",
                    "name": "Frankfurt Speakerson",
                    "biography": "aaa",
                    "avatar": ""
                }
            ],
            "title": "An amazing talk",
            "submission_type": {
                "en": "Talk"
            },
            "track": {
                "en": "DevOops"
            },
            "state": "confirmed",
            "abstract": "aaa",
            "description": "bbb",
            "duration": 25,
            "slot_count": 1,
            "do_not_record": false,
            "is_featured": false,
            "content_locale": "en",
            "slot": {
                "room": {
                    "en": "testroom"
                },
                "start": "2020-08-29T17:15:00+10:00",
                "end": "2020-09-04T13:48:00+09:30"
            },
            "image": null,
            "resources": [],
            "internal_notes": "*PREREC:ACCEPT"
	}
	]
}
